Informe semanal automatizado sobre microoganismos de interes
…
##  2 citrobacter prod. carbapenemasa                1 activo_t~ 2022-11-08 martes 
##  3 clostridium difficile                          8 activo_t~ 2022-11-08 martes 
##  4 enterobacter productor de carbapenemasas      11 activo_t~ 2022-11-08 martes 
##  5 escherichia coli (productor de blee)           4 activo_t~ 2022-11-08 martes 
##  6 escherichia coli carbapenemasa                 1 activo_t~ 2022-11-08 martes 
##  7 klebsiella oxytoca prod blee                   1 activo_t~ 2022-11-08 martes 
##  8 klebsiella pneumoniae prod. carbapenemasas    12 activo_t~ 2022-11-08 martes 
##  9 klebsiella pneumoniae(productor de blee)       3 activo_t~ 2022-11-08 martes 
## 10 klebsiella variicola productor carbapenem~     1 activo_t~ 2022-11-08 martes 
## 11 pseudomonas aeruginosa multir                  4 activo_t~ 2022-11-08 martes 
## 12 pseudomonas aeruginosa prod.carbapenemasa      1 activo_t~ 2022-11-08 martes 
## 13 sarm                                           3 activo_t~ 2022-11-08 martes 
## 14 stenotrophomonas maltophilia                   9 activo_t~ 2022-11-08 martes

## # A tibble: 52 x 5
##    germen                                       n indicador   registro   validez
##    <chr>                                    <int> <chr>       <date>     <chr>  
##  1 citrobacter blee                             1 activo_pla~ 2022-11-08 martes 
##  2 citrobacter prod. carbapenemasa              1 activo_pla~ 2022-11-08 martes 
##  3 clostridium difficile                        2 activo_pla~ 2022-11-08 martes 
##  4 clostridium difficile                        1 activo_pla~ 2022-11-08 martes 
##  5 clostridium difficile                        1 activo_pla~ 2022-11-08 martes 
##  6 clostridium difficile                        1 activo_pla~ 2022-11-08 martes 
##  7 clostridium difficile                        2 activo_pla~ 2022-11-08 martes 
##  8 clostridium difficile                        1 activo_pla~ 2022-11-08 martes 
##  9 enterobacter productor de carbapenemasas     1 activo_pla~ 2022-11-08 martes 
## 10 enterobacter productor de carbapenemasas     1 activo_pla~ 2022-11-08 martes 
## # ... with 42 more rows
…
